$ANSIBLE_VAULT;1.1;AES256
39386439326533343036643464353131666535643337663130613239376238393738343834323639
3431313066663166646461616563323639616365623539360a636336666333383165333965643465
39336265336262633237363363333366313230383933663461636532636439653666636238313235
6164323533393062370a353061323533376534646230316133303836373466336465643432313164
61346235633534323464383833326161373166623063336662316262316663353130623865633330
63333561616436343362643563373631616534303431373535613661646538323638383262626639
37663337396265346166306566316364333937623764393962656532643536386632306636346431
39633262623935613663306662626665346263303230336266303863663438623330313939303933
33386135333538346465653134306437383966386635333764646538626661343836646132623337
37663365356532636638323563393830373465313937333834326465623136623330386335386632
36613434363963656266653939306530313462646333343161353830356666643135373162643861
66393662623465656536636637656435663162356261393166643966393138303238333061366236
62613434313635663331323738636630643432343035303037376630353138333964323461656133
63316464366536613332373362666663316134613564353466366463663732623566383437636336
66643133656665306134666339623239326263636434666235643039326663313665633562653134
32393737613635386563663838363762653032336566386539396465663663306139303137656338
32366164336339306664353866383934306635306335343732643635363539623537363834363364
33653263396530656432666439313964373964313732383163383239306534613532373666303935
39353534383738333861663730646132623763336264346363623536396431616531366336303733
36343136316539326530383566353836633936343461656461663630626331373832633732316330
30656664366565393337323963313637616164376563653734636237333033393135333638373738
32666633303362353633613235366464303033353065396539343639636663323237353565626439
66313233376165363131663731613632373264353836643934386130633334666233643363616661
61663436643430346233653861396233306362386234666136306663613634646233666231396662
66326366346132633463636134373265633161313463363639376334313139313136396263613132
31626338386532363365326133313130633664356236323039386339333631313364623636643836
34343334356230636166336331373833313538386239386436333030353965663939616461393562
37383835333335326634656161323764323265326339666339326164616466363366663133373832
37646438336538666665383736633961376663353837353133393632653364643231356334636662
39313262336139316430376431393132613635393063326339613033396563356464393139326430
39643139356164353937323935633364316336653137663864646630343935363335353636343661
34306265336165313064653666373731613931316164643764363937316233313435383631386364
35333336613637636534616162656537346462376663333637386635646263383139656434316530
33646630393032303931316433306664666362323765613633656137313835666636376362303063
35323032333030653632343562623362373537343166306633623137626339396564643630303936
66326432353836633562616666316436363463633939313132313864633566653437663134643061
35666566363361386632666533633330343138623336333632323937323936656134333536613237
36646462633138373436306334386166383262353732623632663762386639373233333562376361
37633431626436373365346632646234313934316638626564346565313764366463353264623565
39323133613435633637373331306562633136626237373736636632356233623337373138333736
39366335363465343235666135666361306366316338313765373936363436343037616334623464
64663463616266643831366566313030366262643338366432373865636631353761343266366162
32613334626162323766663031343333316130653932353064663261326333306631346663633663
63333863376361656630613065393936666132333633346339663730333132306230613635313036
62613837353131623636353631373466333139643933363162613961333031613032613539323333
66623163333630613637613963656437656564316562346634633138343063383134313665346430
34396134653461383661623132356363323439353765613363306136613566393237316532376430
66666530323931313938373337303037353936346630636465613337613631386530636335336239
33373237366438353031323133373333373430663136386662623731623135396636353036323032
61333233613462316333623538323664353963313664633465626533646635626133373239333464
36393831356232623063633437353739316365333937343433396131623061663064326162633664
30313136663537333039343666346361333566653330326137393661636230343830363361343034
35373662353866333461643333333737613932626231643935623339353762316637666463663430
31353634656337353639653831363830386630366665326539633836353831323466366438616233
39646165373066633232643964623162636136336430653633373536393961623739643334333738
61353933646338353162303430313139626361366164613462316465653262376630393636376565
32393630346134343239623930623463323830663434623530653930363836376563643166386338
39633765333032613463623436333666366462363163386331363230343032303963663030666364
66663561363736636163373439386163363139633932346439366432303732646161303836633133
32383836396538323436323830376463306436313739333433653063613964626532303330366535
61383831393765333938643233386233333061653834323762343065623537316661323337373736
34336332653032363131323234383961373032393536613038616363343065656565396663353237
39303033663633656430393966393538383037633431333963396533376461303566656438326264
37396233373738656639343534653639326537343963346433343265616239343964666633643436
66643866613536323133353364613331333364613866623535383539373161306139626631366339
61356665663335653366333136333865326563623534346663346130386437626332396436636437
32666162633965303639336262306462393662616135333064653964386238343138353038326436
61643464356331383461333634616561346661626562643932646130306164646235363131393264
38306335346262346533353361313364366233323233623232396161306565303330363133383165
62303135373038333839343765333235313362343137616666663934313262326132626538656161
61633463346334303431393863656364323137313962396632323439366430306530613130373439
65653432653536646634363837336562653263663930303530373030326530346533623161353138
37303731346134663036656661326461363362346134646236393664636564353830353232663966
36353131663838313563383863366232316231393334303164656161336138666131623061313131
65656164363162313433616664363031356137366338613131643965633133363063313565383331
35623337373266363261633861616638366438356436653962616163663132623837326237636666
34643332323137643831393635313062633931363963613564663264353766356235653462613735
37613161613234333937396362303066623537346238363735343030366438653930326264306361
65633734666332333232333466363437656433396564323765343933333932386236373636386338
66663032643065383566376333313262346562303466333763393230623764646230633265653262
34623030313930313433353761306538633136376634323439366637313633303633333361333065
62356165646162373332356137323435363964643336316135616234646339656133313765323465
35353066336436316133663836343536356432303432636662386661363961323230373631346534
33313035363337656661343635663231313162376237353839623736643231663538313465643261
32333766376235633530333430643930646638336339343834373365646662323139326566373661
66326638653430356430636466316531396439333265633634386461353032353665303363333066
38643639613133366463373033353831393231376333343333326634333237613037336661333831
35376363326638313536623061393737623563626263356365323936613037626131343534623830
62326465363938613136343434663832623139346230373931383464373637313837316162323135
63323139636566666133323231336436646533346238646430316137393166376532323539613139
30623036353037653865386431363962306137343839383437313434656331613165306464333866
65376464343935616436366165663636326462626232623364333866353964643061366434356533
32616664663138643735353231653838343530653839336433333765633135376338373364663436
66353033336463323033633361313266353164626439343137643439613565373561333832356137
64376236376366613338633330313964353261396331376437333235643162353832636662653032
64386163326635366263343061303335323439646132346165313762333734393966666332386466
34393362386336353432313032646339373530643437336433326562623339643334396631313264
39353433353833306332323563346534333666663837363131396432633031373838336261383361
38623264343361653563333838326334633737343762313565303530306333613530323231646364
65333430313336616666333162353635336435316638616233336435616535663366626133666339
34623663313834363565616465343837326138343637346130373664653732366631303466383265
36336265646463646339623762333235376165353839336661313862666165616364636331363764
35303462663639616336353065626161376361386136333765353466333765333735313039326661
37393633356432376232636635316435646438633136666561643538336339336138646231626436
31366435393464353931363031663539376333356562656130373830346561316464343236326164
31666638386630326332323066633734396236653333343461326334643962653164316162633038
34366339366665626432613561623430306564383063323539643532666135383161663932633430
39356338613535316661613432353139333231333363653936626137363333396139613834653233
64653965313763643664326436633432396538303731313165646536313434663135343434666339
39353531353961306531386231363566326237376134346662376330303233326134646463363731
39656364373334326261303233643362393866303536393566663664666662333064366630373364
30663362346237303937616130303139633033646430636364303535383830626265326631646434
36636433656431663132356363393362646432616430356236376265616162626630646366623365
38336662646333313033313535356564323936613165613035356536393836366537383664663036
61626636623363306434633938343838363433633331356362613939633665383431396430343335
62646534663232343737356636306434386163373439383365623639663866343763346132373465
33336365373963343065363764326262363835303135366631393361313937393839326364326535
63326431616634333833343666323166653565643633313632313665323537363166323961333961
32663130653031323562643361633466383932656239383635623562616162303364613536666265
66613738633335643736323135303335363362643262323833623938626337336433383634633838
34303131393331306165376635326334653862333365343566323137326337383063303532383962
66666534356639623534316263363436336432373035383265316338333930653661666335363165
36316562366636636136303639333166353264633934386237363761383264366564373261653666
63653733323062666661313164353731393966386136643836313932616233623465303430653262
37356465343633376133373834316238663332653130653134643064643865306633383133653334
66623432313432356364363661323163636539303930323639613735396439623131643764353833
36656537353937656639626262633335666430316334326366323435653733383162393436633762
30623239356530323962393339306330663736623461663232346566653763346436646632623661
62623662626539346137303763643232646331306636303730366137373931346663373238373932
39613761656431383035383832333862643337336165373363313337306436326563353365333432
37326231376165343862663535366134613364393536393764636261316530646634393832663737
35376166366165353031306234326364626564366164376130383532386563316533626535653636
66373035633539633438643061656531663139396663666463666335653863666265323962633736
63663264613233336336663730336263653733313834343632333139633635366336623439306631
63323635666233616536323837613632643263623936363762346165313032316563306165656365
33363136353562313831366365643936346631633134356533386337376332333838326338386663
64356164393534303161653636633131643430393763336361666238386431323633353234343933
64393561343863613065323336376366363162636466326634363630643135376334663766376463
33396134616137383030636536353835363135616464613439633138393539336532643437666530
65323537316233626231646339333636346565623864653131343139653635623630613265663738
35376539356666636332633366353966323130356366373963363134373465623738616664353237
66623738363436306635623036386466626337316634336461383733393338363063383331396335
66326163383961323631333639316130643538396539393930366237396264633762333963306562
38363930313037623432643430376362383064663935333664666638646135386438383530303235
38303562306562313466653633636331636436353737393761653236336161353164666532316264
34336537613139366566396239363663633630373735396333386465393537633734343435366238
39396431366139303037633465373331616666636134376264313465363638306532336631313961
62626561646263626539363464613634373963356430306132376166343163366464343736636662
37656662613334316333303463356231333662336564303032616438626162353163373737363532
38633561336530356465353035313339383863306236626530303434353434646533333363343362
33386163666335663432383564666164323936653561636632353030663162633163333436343664
63393539363631626164383032613230623163356262643235313862636436623636393633336533
65333463373230646634626335666439363636366339663864323035613030363666353761303739
62363864373031616334613535396364306638353530633537383564613834313861643635376238
35313530616531353639303566626130623431386336383833616535623733323062626237376133
30383263383632313063633230383361363463633565373366393135336232626630623538626137
33356535376161393731323134333639626535633434376636663038653135353138313631623865
31623762623931316565643963393331393434303435316337643061323735623131306337626435
63633334623934363236393962616335653133663934393036396134626637623163653732643435
37646439363865653630323363316437326439656430303539363536663662666261333638343731
38386364383632653535636562626635646462646162373739313765633466326161306165643638
33643431316565326266623163653561316438653134396131386638326439363033323066323561
65393664323438656430643438306461656538623131616263303436393630616564373839616338
30663030663664666537393737376133353961666266333033353435323663653962333731663138
30623436313239323366323666613163303933373438613834353961636264383837363233643463
35333861643762643331393661343139653961333330616335623833616364643238333038393939
66303234393766313562323631383538373438636639306331663534383234643730323936323630
36333565316462333837356166626162393865626166303634386562623365313831346138303438
30343736316165353938656461353933643963306565393436316137396462336335306663323134
63303362633635653939373035623965383161373766656634363663373131623663376535643139
30666631656435323532306365336237393035363835366164613633363961373836666162316536
66333564626433663738323639613462386336353335316237363330353635613535353237393961
33316233376332663439626339346236336337333561386465613539373233396136396533353436
61663064613139666231626338323263393133306439616439396131373864306233653561303563
66353730396262663762363437666237623137313135623739356233356264656565353439316561
33313266353234393634613836333131386131396236363137613632393731376437663663633639
37333333383332623063306538363738393735623533323239306164636333393534313264626162
31313365663862643537393963663064373533383239393936383736333766646633363065383965
63386139376139643033353462323965396234393532633636646163386230363238386637376265
61386333626461363533633265353265653863366563343237386638663233353135313161646262
30323430396237316534336265666261326136303132363235393336626137313533323535373464
38353334613032343535363763623232373638636333386630633332353133313533353133393732
39306532386435656436303338623135633061336239323037333536373032356135393636653737
37656431313861376233386433346463346637326532326263663937396334663231313230313664
65623133386562343931396337333264616530366264313430356531326436633666366634653935
35323337623930656637333133653730636162373261636236333733623637343265303430666431
33333633656434633633373134313662613435316562353031373432393165336162623936653631
33653637616331633862623361336239636635656239663463396138623439306130613839653432
34656166383261646363353963636430363433656139663739343330333866326131343762356136
36313633376166633536383934633862353835393332646466373632613361643835316431653031
31653866646564383866303465616230643962303562623134383063656462616532383461356531
31336663323337353632633963633561383062353364333932646530373333376264326130646163
37353431663231343466336337333561396332646630396436343239336565313866623539303762
39613664383633663661643937336339353331656239663533363363323664386331656331373733
35633464323161306132373235656437353433343131666432633430333330383138313762313062
63346132363363333830323736636133306461336565336335616438386634346439323761363639
65656239646132373866653039636632666462306531653465356132316261653732373135336636
39656331616665343266633839353136326633393335316633356436396639323634616639383534
36313466633631343261383864303432306631623934643261653536303261626661353030336536
62343630356533656434313263383865303038366661343638363666326165653233376337623062
66623036313337353939613230656632396631613035323133323232653735623265336532643038
32303462633063616636383536373533646233323666373836383137313965643839346138326263
34393033663537666233393033653633363066626563626231663135323564633231656364383266
30333865343461363166613862626233353138633564393639386135336332646335383462346537
39313166623433653930376436663066663031393431393634643039326166396230383337643764
36613037656663383262343233663337373938353933366531336334356335383735663237393034
61646133383066326331653664313839356164663732653136306465303936643630663230396663
65323264363664656430336138313365336233313831326166363431656535316536376132396531
39663962303630333739336431633830633431336461643262643466623130366337646234626166
34656164633766303537616566663561663566643839373439313364346564356434663731646562
34666234643132643938333166393634346430373134383663633732396134333065313566623566
64313138363930313663626665316164316662643633626563663862616239373164323265653833
35323231303465396237323863616332623337316137353936396239383761343366643365633861
38326138323031633035623863346362633532386364303839326633363266353063383837383432
34633064326639333639633862373637333434666634383431323735366231313339633564633139
36646264343738633363383239666232646330323039323733623730346230346661306538386536
31623733363465336230373065613436373135326139306134383266626565623465636264336436
65623230376663613130633364343361643336343637346662323935663363303863663963623766
38336532626464313561336130393533383134623562653231646133666237633834643565336161
66303062326330356438363664663031303062303865666364653235356661633163643164383561
32376162626430636337323962626463653035646130323839323237653038393663323166663335
63353939633836623338383663633662326634643961396334623638653135336436383238353862
64326262313932366132626630626163623633643163613265373761626233616538393738653431
30623165653436343337313763656537333736616437663637373765623038373538313466623061
61663230623238626332343931303364313132356631363932653236343637326166663563383836
35643432636563363835323930323837643539656536343131643966366162343862316238356461
33613761313539636438643963653839653266623035643234356361623730636666666261653665
38663730383432653032346665663762363032633538613961303661626566616330343831323930
66383331346636366231333239333830633335663537313363663531633333626234363861303461
34643139633137386332653934613564646436336338613534633066353463653035376563373462
62663730323736383661306138303362633533316637613038393137666330306366306133643030
65356565336536373164313738623439613062303731323133313033376465326235383065393636
33636362643236313261373035386535623335303264363033653734303635653063623030633737
34386266303863396332663138326337333337346630373130666632393732313032386365323266
31363966356330616162663932353230326465613064643339356432333637363732313165663034
32313664376233656634643266613534393839656236303931613932653061323434613132323063
39343664306464386161343238396338336431636163353631353563373231643632616637363236
36316338383764393366353235643236346439306436643130353362363962653738646135316465
31306435313130616234613836653430663131323835333634646233643536656565643332316666
66633735353931333338326463323438346235383666343237666632646331663939613366636264
36646565353931353731623031333531653239656563343230326663653366313735376165306462
65633539336635366233356233333434346566386237646664323065623733366135343764623530
63646265353931363139666231363562626461623335366534653863616666616139663133383935
64646330633364363431363433336661663963306264633237363839386238623366366332316335
61656362313235643461653335393830303863613264666239623363336162313438373138663366
65616239323063663131346536313561656466383663353662313161656364373938313962343436
66636531353163383433386339613932336436653164646465336237393533376636616433653434
33643263373531613632613936343536353063383731626432363134306432333036313133633733
35356666313234643434633836393439643137373930323630626232353634313066323334323830
32386562633330636239623638616561353534643862396164333163623336346264326532333461
36356563343061363835386632633261393436623639313961313564346465666532623832353239
65663737396333623664613139643563363738623565313066393738646664366330303535343062
31633938313064656665643837643136363164373235636436653166653930336463346561653633
36663032353136303530643162313432376238366561656639363538623230616233646663636635
63363866326138633166656638383664376235356439376664336565643939396463663832616236
66616663306531393262356536316166346539313961366632613630613532343161386339303665
30303164383534353361613864323336653964313565333539393039626362626465383961636366
33653531336338336133633533623764356266343833656163396535616436343931373935663932
31633834656438326361386634323162646163393438343634333765326661636436366330396561
34373831396363383232376333626231336630643739336365373439633134363034653763323133
62313130323966393931666439383834343139626161346333366663623932643761663532383162
33366531626362386333663834636234396564633063326462613166396638313161373236626237
33363438353731353635383531346233316331616434613430303937363966656365303564306436
61343834346433373564646135643364373333393332656632333339633162313839656366633930
36356632396265616664663165306635613937303932663736646234616138363538623636616562
64373639343635383932643432333938303065383665326565316631346438383132313164303362
32363863316134356230393837346463623965393466346262346438313132633535666164383332
65623738383732653937356531396161616235363638643737323866386434663835306665623931
63353834623234323130636538633562323637656661653334393331613030316563653830313266
35396232616365313862306363363465363234353266336533396431306431613165666661613161
35396530396539393734313533336339303131623233626262633363616132393830323938643430
35643038356533636138323233656635666534303239353937393736306530343165663533333562
31333766313530383735643436633762303765393064333833303036633962313663303338363339
30656334363433316431346538616661336430623237663636366438626464373930376138636566
66356133343961356330353530613762353136656439336461663865383838356434326362623335
39396661346639623135323064303432616536616631363935323634623139333865663738356232
36623261396563333133366330623566383965363430356530356562393438323463633864393166
32373364666231626161633964376239626238336235353832333637663235633063323562643861
38326663393663316238346434363234666331363665366137633932303930373166313735353332
66336362616663366332353433303161373163313436353732373439613835623563633633383464
30656637326362643238393966373530353965623134343136373638373939373665363935386336
37383664303663633361393437376263346139373762336437616136366231386535303132393135
31333930363238613162643335363364643733326165326663636131613637313035663761306465
64353862313235343937
